{
    "core_name": "vietocr",
    "language": "vi",
    "config_name": "vgg_transformer",
    "weight": "https://drive.google.com/uc?id=13327Y1tz1ohsm5YZMyXVMPIOjoOA0OaA",
    "pretrained": false,
    "device": "cpu",
    "beamsearch": false,
    "constrast_factor": 2,
    "tmp_output_folder_path_image": "./tmp/output/detection/image",
    "tmp_output_folder_path_json": "./tmp/output/detection/json",
    "tmp_output_folder_path_image_recog": "./tmp/output/recognition/image/menu",
    "tmp_output_folder_path_json_recog": "./tmp/output/recognition/json/menu",
    "save_result_as_json": true,
    "save_result_as_image": true
}